<?xml version="1.0" encoding="UTF-8" standalone="no"?>
<svg
   xmlns:dc="http://purl.org/dc/elements/1.1/"
   xmlns:cc="http://creativecommons.org/ns#"
   xmlns:rdf="http://www.w3.org/1999/02/22-rdf-syntax-ns#"
   xmlns:svg="http://www.w3.org/2000/svg"
   xmlns="http://www.w3.org/2000/svg"
   viewBox="0 0 370.61334 386.54666"
   height="386.54666"
   width="370.61334"
   xml:space="preserve"
   id="svg2"
   version="1.1"><metadata
     id="metadata8"><rdf:RDF><cc:Work
         rdf:about=""><dc:format>image/svg+xml</dc:format><dc:type
           rdf:resource="http://purl.org/dc/dcmitype/StillImage" /></cc:Work></rdf:RDF></metadata><defs
     id="defs6" /><g
     transform="matrix(1.3333333,0,0,-1.3333333,0,386.54667)"
     id="g10"><g
       transform="scale(0.1)"
       id="g12"><path
         id="path14"
         style="fill:#0C0C0C;fill-opacity:1;fill-rule:nonzero;stroke:none"
         d="m 1882.63,0 c -9.28,0 -17.96,5.82031 -21.13,15.0781 -19.03,55.3321 -29.37,118.0039 -30.71,186.2499 -1.36,58.133 3.35,120.211 14,184.422 16.22,100.512 40.7,172.32 41.74,175.32 4.02,11.641 16.71,17.899 28.41,13.852 11.67,-4.024 17.87,-16.742 13.86,-28.41 -0.24,-0.703 -24.31,-71.403 -39.88,-167.973 -10.22,-61.57 -14.73,-120.828 -13.42,-176.25 1.25,-63.68 10.77,-121.7499 28.27,-172.6601 4.01,-11.668 -2.19,-24.38671 -13.86,-28.41015 C 1887.49,0.378906 1885.05,0 1882.63,0" /><path
         id="path16"
         style="fill:#0C0C0C;fill-opacity:1;fill-rule:nonzero;stroke:none"
         d="m 1173.74,364.699 c -3.88,-8.347 -7.75,-16.39 -11.93,-24.437 C 1057.2,135.789 845.578,4.94922 614.59,4.94922 275.699,4.94922 0,280.648 0,619.832 c 0,227.117 123.988,425.628 307.891,532.028 12.816,7.45 25.929,14.61 39.339,21.16 80.774,39.05 171.68,61.1 267.36,61.1 12.219,0 22.351,-9.83 22.351,-22.35 0,-12.22 -10.132,-22.35 -22.351,-22.35 -314.449,0 -569.883,-255.44 -569.883,-569.588 0,-314.441 255.434,-570.1718 569.883,-570.1718 209.828,0 402.67,116.5388 501.62,299.8398 5.96,11.031 11.63,22.059 16.99,33.68 1.19,2.679 2.68,4.769 4.47,6.562 10.73,-3.582 22.65,-5.371 35.47,-5.371 3.28,-5.961 3.58,-13.109 0.6,-19.672" /><path
         id="path18"
         style="fill:#0C0C0C;fill-opacity:1;fill-rule:nonzero;stroke:none"
         d="m 330.613,1134.03 c -8.105,0 -15.937,4.43 -19.91,12.14 -33.91,66.1 -51.109,137.56 -51.109,212.36 0,256.79 208.914,465.71 465.707,465.71 12.344,0 22.355,-10.01 22.355,-22.35 0,-12.34 -10.011,-22.35 -22.355,-22.35 -232.141,0 -421,-188.88 -421,-421.01 0,-67.64 15.543,-132.23 46.191,-191.93 5.633,-11 1.297,-24.47 -9.691,-30.09 -3.262,-1.69 -6.754,-2.48 -10.188,-2.48" /><path
         id="path20"
         style="fill:#0C0C0C;fill-opacity:1;fill-rule:nonzero;stroke:none"
         d="m 2497.02,1966.23 c -9.11,0 -17.7,5.61 -20.98,14.67 -92.45,252.91 -258.36,340.46 -260.02,341.31 -10.97,5.61 -15.34,19.06 -9.72,30.06 5.56,11 19.04,15.28 29.98,9.78 7.42,-3.75 182.85,-95.29 281.73,-365.78 4.25,-11.62 -1.72,-24.45 -13.3,-28.67 -2.54,-0.94 -5.13,-1.37 -7.69,-1.37" /><path
         id="path22"
         style="fill:#0C0C0C;fill-opacity:1;fill-rule:nonzero;stroke:none"
         d="m 648.984,1779.54 c -9.359,0 -18.089,5.91 -21.207,15.28 -85.789,257.39 -71.906,418.88 59.438,691.14 120.996,250.79 438.295,485.44 966.175,392.3 105.04,-18.54 439.72,-112.44 588.45,-250.67 102.66,-95.41 122.98,-231.22 49.4,-330.3 -7.37,-9.93 -21.34,-11.99 -31.29,-4.63 -9.9,7.36 -11.97,21.37 -4.63,31.29 59.52,80.13 41.48,191.52 -43.92,270.87 -141.38,131.39 -464.2,221.47 -565.81,239.43 -503.17,88.81 -804.211,-131.68 -918.121,-367.73 -125.289,-259.72 -138.68,-413.38 -57.281,-657.56 3.902,-11.73 -2.43,-24.36 -14.133,-28.29 -2.34,-0.76 -4.731,-1.13 -7.071,-1.13" /><path
         id="path24"
         style="fill:#0C0C0C;fill-opacity:1;fill-rule:nonzero;stroke:none"
         d="m 1295.58,1344.48 c -36.12,0 -72.04,9.78 -103.19,29.28 -54.63,34.26 -82.22,91.28 -75.73,156.51 4.84,48.72 23.25,85.16 54.72,108.3 50.27,37 114.59,24.31 117.33,23.75 12.08,-2.47 19.88,-14.29 17.38,-26.4 -2.45,-12.08 -14.5,-19.76 -26.32,-17.4 v 0 c -0.46,0.14 -48.11,9.11 -82.14,-16.13 -20.69,-15.34 -32.95,-41.1 -36.5,-76.55 -6.49,-65.29 31.7,-99.57 55.02,-114.19 47.35,-29.68 111.91,-29.51 160.66,0.38 65.61,40.23 96.12,125.25 85.9,239.35 -11,122.68 24.16,230.7 104.46,321.02 124.29,139.77 333.66,206.57 486.06,210.82 12.54,-0.09 22.62,-9.4 22.96,-21.74 0.32,-12.34 -9.4,-22.62 -21.74,-22.97 -142.74,-3.96 -338.45,-66.04 -453.86,-195.83 -71.81,-80.74 -103.21,-177.41 -93.35,-287.28 15.95,-178.02 -60.22,-252.77 -107.05,-281.5 -31.96,-19.59 -68.4,-29.39 -104.61,-29.42" /><path
         id="path26"
         style="fill:#0C0C0C;fill-opacity:1;fill-rule:nonzero;stroke:none"
         d="m 1470.04,791.301 c -103.85,0 -194.17,60.078 -218.76,147.89 -28.44,101.529 32.28,180.519 106.94,206.079 70.46,24.19 159.85,3.4 200.77,-97.16 4.66,-11.44 -0.84,-24.48 -12.25,-29.14 -11.41,-4.68 -24.48,0.79 -29.14,12.26 -32.01,78.62 -98.03,87.81 -144.89,71.75 -53.12,-18.2 -100.3,-73.44 -78.35,-151.742 23.05,-82.367 113.31,-119.797 191.37,-114.679 79.12,5.5 169.78,56.703 186.96,183.871 13.88,102.72 -17.85,174.79 -48.53,244.47 -11.26,25.52 -22.87,51.92 -31.87,79.11 -69.5,209.86 -29.22,454.91 102.66,624.26 115,147.68 287.2,221.21 483.93,206.92 12.32,-0.9 21.6,-11.59 20.7,-23.9 -0.87,-12.34 -12.26,-21.45 -23.9,-20.7 -181.74,13.04 -339.91,-54.25 -445.45,-189.77 -122.95,-157.91 -160.44,-386.66 -95.5,-582.78 8.33,-25.15 19.01,-49.42 30.33,-75.12 31.64,-71.87 67.5,-153.28 51.93,-268.49 -20.76,-153.77 -131.48,-215.739 -228.14,-222.461 -6.32,-0.438 -12.61,-0.668 -18.81,-0.668" /><path
         id="path28"
         style="fill:#0C0C0C;fill-opacity:1;fill-rule:nonzero;stroke:none"
         d="m 1332.6,509.551 c -0.3,-1.192 -0.3,-2.379 -0.89,-3.571 -16.4,-48.589 -32.49,-84.648 -51.27,-110.582 -28.02,-39.937 -61.1,-55.738 -107,-55.738 h -0.3 c -3.87,0 -7.75,0 -11.33,0.602 -16.39,0.886 -31.59,3.867 -45.6,9.238 -27.12,10.129 -49.18,28.309 -63.18,52.762 -20.27,35.168 -20.57,78.09 -0.9,112.058 22.65,39.352 68.25,61.7 125.18,61.7 12.52,0 22.36,-9.829 22.36,-22.348 0,-12.223 -9.84,-22.363 -22.36,-22.363 -41.13,0 -71.83,-14.008 -86.43,-39.34 -11.92,-20.27 -11.33,-46.199 0.89,-67.36 9.84,-16.687 25.64,-28.91 45.9,-34.867 10.73,-3.582 22.65,-5.371 35.47,-5.371 h 0.3 c 40.83,0 73.02,9.238 115.05,132.641 0,0.289 0,0.59 0.3,1.187 0,0.59 0.29,1.492 0.59,2.082 3.88,11.629 16.69,17.891 28.32,14.008 10.43,-3.57 16.69,-14.301 14.9,-24.738" /><path
         id="path30"
         style="fill:#0C0C0C;fill-opacity:1;fill-rule:nonzero;stroke:none"
         d="m 2351.66,2214.48 c -6.87,0 -13.62,3.15 -18.02,9.08 -134.06,181.78 -461.31,240.8 -1060.65,191.67 -12.54,-1.19 -23.08,8.15 -24.1,20.43 -1.02,12.32 8.12,23.11 20.43,24.11 616.66,50.73 956.02,-14.04 1100.3,-209.66 7.34,-9.93 5.21,-23.93 -4.71,-31.26 -3.99,-2.94 -8.65,-4.37 -13.25,-4.37" /><path
         id="path32"
         style="fill:#0C0C0C;fill-opacity:1;fill-rule:nonzero;stroke:none"
         d="m 2494.52,1955.43 c -7.02,0 -13.91,3.29 -18.28,9.46 -151.47,214.28 -466.58,199.85 -616.98,95.76 -10.19,-7.04 -24.07,-4.48 -31.11,5.68 -7.02,10.15 -4.49,24.07 5.67,31.11 187.42,129.64 524.77,111.28 678.92,-106.76 7.13,-10.07 4.74,-24.02 -5.36,-31.15 -3.9,-2.76 -8.41,-4.1 -12.86,-4.1" /><path
         id="path34"
         style="fill:#0C0C0C;fill-opacity:1;fill-rule:nonzero;stroke:none"
         d="m 550.473,1349.63 c -145.493,0 -266.141,33.99 -274.727,36.47 -11.859,3.43 -18.687,15.8 -15.281,27.68 3.422,11.82 15.746,18.63 27.668,15.28 3.492,-1.02 348.566,-98 565.312,39.79 91.7,58.3 148.355,151.47 168.385,276.95 93.71,587.09 1143.23,432.15 1187.85,425.25 12.19,-1.89 20.58,-13.3 18.69,-25.5 -1.9,-12.22 -13.25,-20.49 -25.5,-18.68 -10.48,1.6 -1050.15,155.34 -1136.89,-388.11 -22.15,-138.75 -85.628,-242.29 -188.699,-307.72 -99.164,-62.99 -219.726,-81.41 -326.808,-81.41" /><path
         id="path36"
         style="fill:#0C0C0C;fill-opacity:1;fill-rule:nonzero;stroke:none"
         d="m 1191.46,1982.21 c -4.07,0 -8.23,1.1 -11.93,3.46 -10.42,6.61 -13.54,20.44 -6.93,30.85 183.93,290.2 60.28,399.23 54.93,403.72 -7.19,6.05 -9.93,16.01 -6.73,24.83 3.23,8.84 11.53,14.78 20.93,14.78 102.46,0 185.79,83.33 185.79,185.79 0,104.61 -117.19,185.76 -217.98,185.76 -12.34,0 -22.36,10.01 -22.36,22.35 0,12.34 10.02,22.36 22.36,22.36 123.99,0 262.69,-98.56 262.69,-230.47 0,-112.29 -80.69,-206.08 -187.13,-226.39 35.71,-58.42 74.08,-191.87 -74.72,-426.65 -4.28,-6.72 -11.5,-10.39 -18.92,-10.39" /><path
         id="path38"
         style="fill:#0C0C0C;fill-opacity:1;fill-rule:nonzero;stroke:none"
         d="m 757.828,2106.14 c -12.34,0 -22.355,10.02 -22.355,22.36 0,12.34 10.015,22.35 22.355,22.35 103.899,0 188.426,84.53 188.426,188.41 0,103.91 -84.527,188.44 -188.426,188.44 -12.34,0 -22.355,10.01 -22.355,22.35 0,12.34 10.015,22.36 22.355,22.36 128.551,0 233.133,-104.58 233.133,-233.15 0,-128.53 -104.582,-233.12 -233.133,-233.12" /><path
         id="path40"
         style="fill:#0C0C0C;fill-opacity:1;fill-rule:nonzero;stroke:none"
         d="m 506.754,271.629 c -81.078,0 -148.594,48.172 -181.746,110.519 -37.242,70.063 -33.574,167.071 58.609,225.864 73.059,46.687 156.406,22.527 202.875,-19.672 40.11,-36.391 53.453,-84.621 33.981,-122.918 -5.586,-11 -19.02,-15.313 -30.051,-9.813 -11.004,5.621 -15.399,19.071 -9.797,30.071 12.227,24.07 -5.367,52.511 -24.172,69.531 -34.258,31.121 -95.441,49.109 -148.797,15.141 -72.777,-46.454 -68.75,-119.114 -43.179,-167.223 35.222,-66.219 120.082,-111.91 214.461,-70.988 137.007,59.41 142.406,198.129 148.109,344.968 4.965,127.7 10.086,259.723 101.105,350.741 92.282,92.27 192.758,147.52 289.928,200.93 109.27,60.07 212.48,116.8 301.38,221.99 8,9.43 22.15,10.51 31.52,2.65 9.43,-7.97 10.59,-22.09 2.65,-31.52 -94.25,-111.48 -205.96,-172.89 -314.01,-232.3 C 1045.19,1137.7 947.547,1084 859.762,996.238 781.129,917.621 776.34,794.469 771.711,675.371 765.73,521.191 759.531,361.738 596.723,291.102 565.648,277.621 535.363,271.629 506.754,271.629" /><path
         id="path42"
         style="fill:#0C0C0C;fill-opacity:1;fill-rule:nonzero;stroke:none"
         d="m 1266.99,391.109 c -4.68,0 -9.43,1.481 -13.44,4.512 -9.84,7.449 -11.79,21.481 -4.37,31.32 81.24,107.457 35.45,268.95 -8.82,425.141 -53.96,190.348 -109.76,387.168 64.91,491.458 10.68,6.35 24.36,2.89 30.65,-7.71 6.35,-10.59 2.88,-24.33 -7.71,-30.65 -145.25,-86.74 -96.46,-258.76 -44.83,-440.91 47.24,-166.688 96.11,-339.059 1.49,-464.282 -4.4,-5.816 -11.09,-8.879 -17.88,-8.879" /><path
         id="path44"
         style="fill:#0C0C0C;fill-opacity:1;fill-rule:nonzero;stroke:none"
         d="m 1892.44,1066.33 c -53.23,0 -107.72,24.68 -131.47,81.41 -18.17,43.37 -13.54,84.41 13.01,115.56 27.94,32.77 76.67,48.66 118.4,38.53 31.64,-7.65 53.82,-29.25 60.93,-59.26 2.82,-12.02 -4.63,-24.04 -16.65,-26.89 -11.85,-2.65 -24.05,4.6 -26.9,16.65 -3.2,13.59 -12.57,22.35 -27.88,26.05 -25.12,6.05 -56.94,-4.25 -73.88,-24.07 -15.25,-17.93 -17.29,-41.89 -5.82,-69.28 21.43,-51.14 82.11,-63.01 128.25,-48.17 45.49,14.55 87.67,58.45 69.65,138 -16.18,71.54 -82.75,151.73 -153.19,236.61 -125.01,150.65 -266.71,321.39 -142.91,487.94 7.3,9.9 21.33,12.02 31.26,4.6 9.92,-7.36 11.96,-21.36 4.6,-31.26 -102.81,-138.37 21.36,-288.01 141.45,-432.73 73.97,-89.13 143.82,-173.33 162.39,-255.27 24.71,-109.15 -38.22,-170.83 -99.63,-190.47 -16.27,-5.21 -33.88,-7.95 -51.61,-7.95" /><path
         id="path46"
         style="fill:#0C0C0C;fill-opacity:1;fill-rule:nonzero;stroke:none"
         d="m 2403.44,835.16 c -3.26,0 -6.58,0.731 -9.72,2.25 -11.12,5.379 -15.75,18.77 -10.36,29.86 25.23,51.98 98.58,94.832 167.01,97.57 49.22,0.43 82.11,10.558 88.75,27.09 4.75,11.82 -3.78,27.25 -9.2,32.52 -36.41,35.27 -70.81,74.71 -60.07,109.73 4.04,13.16 16.03,30.1 50.26,36.09 74.23,12.93 90.73,19.39 113.2,64.3 9.81,19.62 -32.69,64.85 -70.15,104.75 -30.59,32.57 -65.25,69.45 -91.22,109.65 -16.56,25.61 -31.37,45.26 -43.25,61.07 -35.89,47.59 -55.65,73.81 -31.81,144.22 18.3,54.14 13.97,88.57 6.81,145.59 -2.65,21.19 -5.65,45 -7.92,73.35 -7.86,96.61 -29.31,135.9 -72.01,214.17 -10.77,19.76 -22.82,41.83 -36.24,67.67 -5.67,10.98 -1.4,24.46 9.55,30.16 10.94,5.64 24.45,1.4 30.15,-9.55 13.25,-25.55 25.15,-47.35 35.78,-66.86 44.3,-81.18 68.72,-125.88 77.3,-231.98 2.24,-27.59 5.16,-50.76 7.75,-71.37 7.42,-59 12.77,-101.64 -8.85,-165.5 -16.24,-48.06 -9.11,-57.52 25.17,-103.01 12.35,-16.36 27.69,-36.7 45.12,-63.69 23.78,-36.79 56.96,-72.12 86.24,-103.32 54.38,-57.87 101.33,-107.85 77.57,-155.32 -31.52,-63.07 -64.93,-74.34 -145.5,-88.4 -12.52,-2.18 -15.37,-5.5 -15.4,-5.53 -0.32,-2 -0.55,-16.47 47.27,-62.81 16.5,-16.04 34.11,-49.74 20.96,-82.579 -14.44,-35.972 -57.9,-54.511 -129.15,-55.121 -56.32,-2.269 -111.83,-39.269 -127.9,-72.39 -3.87,-7.981 -11.84,-12.61 -20.14,-12.61" /><path
         id="path48"
         style="fill:#0C0C0C;fill-opacity:1;fill-rule:nonzero;stroke:none"
         d="m 2220.48,415.301 c -88.63,0 -197.96,19.969 -333.74,77.008 -11.41,4.781 -16.74,17.882 -11.97,29.261 4.75,11.379 17.85,16.762 29.26,11.961 280.01,-117.59 438.11,-69.449 532.71,-23.051 48.73,27.59 82.34,77.102 84.47,125.54 0.7,15.742 -1.78,44.671 -26.14,61.41 -43.28,29.781 -62.35,64.468 -50.99,92.789 9.05,22.711 34.23,33.242 67.2,27.769 16.04,-2.558 29.72,-6.777 40.72,-10.187 7.98,-2.469 18.92,-5.961 22.33,-5.289 -0.12,0.23 2.71,3.609 5.88,15.308 4.83,17.692 3.67,32.012 -3.32,40.309 -5.12,6.141 -12.72,7.922 -17.73,7.332 -7.65,-0.691 -16.99,-0.199 -28.78,0.437 -34.12,1.954 -85.43,4.602 -110.2,-23.226 -8.24,-9.25 -22.38,-10.043 -31.55,-1.863 -9.23,8.211 -10.07,22.332 -1.87,31.55 39.1,43.981 106.16,40.321 146,38.192 9.32,-0.461 17.15,-1.082 22.33,-0.551 21.28,1.832 42.29,-6.699 56.06,-23.141 9.66,-11.527 24.07,-37.32 12.2,-80.8 -3.79,-13.938 -10.83,-33.559 -27.95,-42.957 -17.96,-9.93 -36.7,-4.172 -56.61,1.968 -10.16,3.149 -21.66,6.7 -34.61,8.801 -12.16,1.918 -18.07,-0.211 -19.15,-1.109 0.17,-1.66 4.89,-17.52 35.36,-38.481 30.77,-21.16 47.36,-57.691 45.5,-100.242 -2.8,-63.457 -45.29,-127.457 -108.31,-163.09 -56.2,-27.59 -132.09,-55.648 -237.1,-55.648" /><path
         id="path50"
         style="fill:#0C0C0C;fill-opacity:1;fill-rule:nonzero;stroke:none"
         d="m 2368.71,1826.79 c -120.73,0 -318.05,-127.34 -326.4,-132.75 -10.33,-6.73 -13.27,-20.58 -6.55,-30.93 4.28,-6.59 11.44,-10.17 18.77,-10.17 4.17,0 8.39,1.16 12.17,3.61 1.92,1.25 194.38,125.53 302.01,125.53 64.07,0 75.19,-41.94 76.18,-46.44 2.32,-12.12 14.03,-20.04 26.16,-17.72 12.14,2.33 20.06,14.04 17.73,26.17 -5.5,28.61 -37.69,82.7 -120.07,82.7" /><path
         id="path52"
         style="fill:#0C0C0C;fill-opacity:1;fill-rule:nonzero;stroke:none"
         d="m 2270.99,1601.54 c 21.98,22.84 53.28,19.5 53.45,19.48 2.77,-19.62 19.46,-34.77 39.85,-34.77 22.33,0 40.43,18.1 40.43,40.43 0,21.69 -5.94,43.03 -64.2,43.03 -88.15,0 -122.68,-59.2 -137.87,-64.24 -3.4,-1.13 -1.19,0 -6.66,0 -10.08,0 -21.7,-7.34 -21.7,-23.03 0,-19.62 18.97,-23.44 23.75,-23.44 4.78,0 12.56,1.11 26.14,1.11 131.21,0 156.07,-60.99 179.13,-60.99 12.22,0 22.55,7.95 22.55,23.07 0,38.18 -101.99,69.19 -154.87,79.35" /></g></g></svg>
